-------------------------------------------------------------------------------
Test set: com.springboot.api.jdbc.ApiTestJdbcApplicationTests
-------------------------------------------------------------------------------
Tests run: 1, Failures: 0, Errors: 0, Skipped: 0, Time elapsed: 16.432 s - in com.springboot.api.jdbc.ApiTestJdbcApplicationTests
